Project 1
…
pos_count <- filtered_data %>%
  group_by(ground_truth_category, POS) %>%
  summarise(count = n()) %>%
  group_by(ground_truth_category) %>%
  mutate(relative_frequency = count / sum(count)) %>%
  arrange(ground_truth_category, POS)

Check data

Code

pos_count

# A tibble: 83 × 4
# Groups:   ground_truth_category [7]
   ground_truth_category POS   count relative_frequency
   <chr>                 <chr> <int>              <dbl>
 1 achievement           ADJ    6018             0.0789
 2 achievement           ADP    7529             0.0987
 3 achievement           ADV    3682             0.0482
 4 achievement           CONJ   1877             0.0246
 5 achievement           DET    6797             0.0891
 6 achievement           NOUN  16734             0.219 
 7 achievement           NUM    1051             0.0138
 8 achievement           PRON   9910             0.130 
 9 achievement           PRT    2412             0.0316
10 achievement           PUNCT  6009             0.0787
# ℹ 73 more rows
…
Write data

Code

write_csv(average_pos_frequency, here("output", "average_pos_frequency.csv"))

Check data

Code

average_pos_frequency

# A tibble: 83 × 7
# Groups:   ground_truth_category [7]
   ground_truth_category POS   count relative_frequency average_frequency
   <chr>                 <chr> <int>              <dbl>             <dbl>
 1 achievement           ADJ    6018             0.0789            0.0778
 2 achievement           ADP    7529             0.0987            0.0956
 3 achievement           ADV    3682             0.0482            0.0462
 4 achievement           CONJ   1877             0.0246            0.0315
 5 achievement           DET    6797             0.0891            0.0902
 6 achievement           NOUN  16734             0.219             0.225 
 7 achievement           NUM    1051             0.0138            0.0110
 8 achievement           PRON   9910             0.130             0.125 
 9 achievement           PRT    2412             0.0316            0.0362
10 achievement           PUNCT  6009             0.0787            0.0803
# ℹ 73 more rows
# ℹ 2 more variables: difference_from_average <dbl>, emoji <chr>
…
